{
  "status": "S01", 
  "message": "Data fetched successfully", 
  "data": [
    {
      "url": "/dubai/salons-and-spas", 
      "slug": "body", 
      "children": [
        {
          "url": "/dubai/salons-and-spas", 
          "slug": "acupuncture", 
          "id": 2, 
          "name": "Acupuncture"
        }, 
        {
          "url": "/dubai/salons-and-spas", 
          "slug": "body-exfoliation-treatments", 
          "id": 3, 
          "name": "Body Exfoliation Treatments"
        }, 
        {
          "url": "/dubai/salons-and-spas", 
          "slug": "body-wrap", 
          "id": 4, 
          "name": "Body Wrap"
        }, 
        {
          "url": "/dubai/salons-and-spas", 
          "slug": "cellulite-treatments", 
          "id": 5, 
          "name": "Cellulite Treatments"
        }, 
        {
          "url": "/dubai/salons-and-spas", 
          "slug": "moroccan-bath", 
          "id": 8, 
          "name": "Moroccan Bath"
        }, 
        {
          "url": "/dubai/salons-and-spas", 
          "slug": "spot-reduction-therapy", 
          "id": 9, 
          "name": "Spot Reduction Therapy"
        }, 
        {
          "url": "/dubai/salons-and-spas", 
          "slug": "spray-tanning-sunless-tanning", 
          "id": 10, 
          "name": "Tanning"
        }, 
        {
          "url": "/dubai/salons-and-spas", 
          "slug": "steam-sauna-therapy", 
          "id": 11, 
          "name": "Steam and Sauna Therapy"
        }, 
        {
          "url": "/dubai/salons-and-spas", 
          "slug": "henna", 
          "id": 51, 
          "name": "Henna"
        }, 
        {
          "url": "/dubai/salons-and-spas", 
          "slug": "bleach", 
          "id": 58, 
          "name": "Bleach"
        }, 
        {
          "url": "/dubai/salons-and-spas", 
          "slug": "body-scrub", 
          "id": 59, 
          "name": "Body Scrub"
        }, 
        {
          "url": "/dubai/salons-and-spas", 
          "slug": "hypoxi", 
          "id": 68, 
          "name": "Hypoxi"
        }, 
        {
          "url": "/dubai/salons-and-spas", 
          "slug": "lpg", 
          "id": 69, 
          "name": "LPG"
        }, 
        {
          "url": "/dubai/salons-and-spas", 
          "slug": "skin-care", 
          "id": 104, 
          "name": "Skin Care"
        }
      ], 
      "id": 1, 
      "name": "Body"
    }, 
    {
      "url": "/dubai/salons-and-spas", 
      "slug": "face", 
      "children": [
        {
          "url": "/dubai/salons-and-spas", 
          "slug": "acne-treatment", 
          "id": 14, 
          "name": "Acne Treatment"
        }, 
        {
          "url": "/dubai/salons-and-spas", 
          "slug": "eyebrows-eyelash-treatments", 
          "id": 15, 
          "name": "Eyebrow and Eyelash Treatments"
        }, 
        {
          "url": "/dubai/salons-and-spas", 
          "slug": "eyelash-extensions", 
          "id": 16, 
          "name": "Eyelash Extensions"
        }, 
        {
          "url": "/dubai/salons-and-spas", 
          "slug": "facials", 
          "id": 17, 
          "name": "Facial"
        }, 
        {
          "url": "/dubai/salons-and-spas", 
          "slug": "make-up", 
          "id": 18, 
          "name": "Makeup"
        }, 
        {
          "url": "/dubai/salons-and-spas", 
          "slug": "clean-up", 
          "id": 60, 
          "name": "Clean Up"
        }, 
        {
          "url": "/dubai/salons-and-spas", 
          "slug": "shaving", 
          "id": 62, 
          "name": "Shaving"
        }, 
        {
          "url": "/dubai/salons-and-spas", 
          "slug": "bridal-makeup", 
          "id": 128, 
          "name": "Bridal Makeup"
        }
      ], 
      "id": 13, 
      "name": "Face"
    }, 
    {
      "url": "/dubai/salons-and-spas", 
      "slug": "hair", 
      "children": [
        {
          "url": "/dubai/salons-and-spas", 
          "slug": "blowdry", 
          "id": 22, 
          "name": "Blow Dry"
        }, 
        {
          "url": "/dubai/salons-and-spas", 
          "slug": "hair-colouring-highlighting", 
          "id": 23, 
          "name": "Hair Colour and Highlights"
        }, 
        {
          "url": "/dubai/salons-and-spas", 
          "slug": "hair-consulting", 
          "id": 24, 
          "name": "Hair Consulting"
        }, 
        {
          "url": "/dubai/salons-and-spas", 
          "slug": "hair-cuts-and-hair-styling", 
          "id": 25, 
          "name": "Hair Cut"
        }, 
        {
          "url": "/dubai/salons-and-spas", 
          "slug": "hair-loss-treatments", 
          "id": 26, 
          "name": "Hair Loss Treatments"
        }, 
        {
          "url": "/dubai/salons-and-spas", 
          "slug": "hair-straightening", 
          "id": 27, 
          "name": "Hair Straightening"
        }, 
        {
          "url": "/dubai/salons-and-spas", 
          "slug": "keratin-treatments", 
          "id": 29, 
          "name": "Keratin Treatments"
        }, 
        {
          "url": "/dubai/salons-and-spas", 
          "slug": "hair-spa", 
          "id": 50, 
          "name": "Hair Spa"
        }, 
        {
          "url": "/dubai/salons-and-spas", 
          "slug": "henna-for-hair", 
          "id": 61, 
          "name": "Henna (For Hair)"
        }, 
        {
          "url": "/dubai/salons-and-spas", 
          "slug": "hair-extensions", 
          "id": 66, 
          "name": "Hair Extensions"
        }, 
        {
          "url": "/dubai/salons-and-spas", 
          "slug": "perming", 
          "id": 80, 
          "name": "Perming"
        }, 
        {
          "url": "/dubai/salons-and-spas", 
          "slug": "hair-styling", 
          "id": 109, 
          "name": "Hair Styling"
        }, 
        {
          "url": "/dubai/salons-and-spas", 
          "slug": "bridal-hair", 
          "id": 113, 
          "name": "Bridal Hair"
        }, 
        {
          "url": "/dubai/salons-and-spas", 
          "slug": "rebonding", 
          "id": 114, 
          "name": "Rebonding"
        }
      ], 
      "id": 21, 
      "name": "Hair"
    }, 
    {
      "url": "/dubai/salons-and-spas", 
      "slug": "hair-removal", 
      "children": [
        {
          "url": "/dubai/salons-and-spas", 
          "slug": "brazilian-wax", 
          "id": 32, 
          "name": "Brazilian Wax"
        }, 
        {
          "url": "/dubai/salons-and-spas", 
          "slug": "male-waxing", 
          "id": 33, 
          "name": "Male Waxing"
        }, 
        {
          "url": "/dubai/salons-and-spas", 
          "slug": "threading", 
          "id": 34, 
          "name": "Threading"
        }, 
        {
          "url": "/dubai/salons-and-spas", 
          "slug": "waxing", 
          "id": 35, 
          "name": "Waxing"
        }
      ], 
      "id": 31, 
      "name": "Hair Removal"
    }, 
    {
      "url": "/dubai/salons-and-spas", 
      "slug": "massage", 
      "children": [
        {
          "url": "/dubai/salons-and-spas", 
          "slug": "aromatherapy-massage", 
          "id": 37, 
          "name": "Aromatherapy Massage"
        }, 
        {
          "url": "/dubai/salons-and-spas", 
          "slug": "deep-tissue-massage", 
          "id": 38, 
          "name": "Deep Tissue Massage"
        }, 
        {
          "url": "/dubai/salons-and-spas", 
          "slug": "foot-massage", 
          "id": 39, 
          "name": "Foot Massage"
        }, 
        {
          "url": "/dubai/salons-and-spas", 
          "slug": "head-shoulder-massage", 
          "id": 40, 
          "name": "Head & Shoulder Massage"
        }, 
        {
          "url": "/dubai/salons-and-spas", 
          "slug": "stone-massage-therapy", 
          "id": 41, 
          "name": "Stone Massage Therapy"
        }, 
        {
          "url": "/dubai/salons-and-spas", 
          "slug": "swedish-massage", 
          "id": 42, 
          "name": "Swedish Massage"
        }, 
        {
          "url": "/dubai/salons-and-spas", 
          "slug": "thai-massage", 
          "id": 43, 
          "name": "Thai Massage"
        }, 
        {
          "url": "/dubai/salons-and-spas", 
          "slug": "therapeutic-massage", 
          "id": 44, 
          "name": "Therapeutic Massage"
        }, 
        {
          "url": "/dubai/salons-and-spas", 
          "slug": "hot-oil-massage", 
          "id": 52, 
          "name": "Hot Oil Massage"
        }, 
        {
          "url": "/dubai/salons-and-spas", 
          "slug": "full-body-massage", 
          "id": 53, 
          "name": "Full Body Massage"
        }, 
        {
          "url": "/dubai/salons-and-spas", 
          "slug": "back-massage", 
          "id": 54, 
          "name": "Back Massage"
        }, 
        {
          "url": "/dubai/salons-and-spas", 
          "slug": "chinese-massage", 
          "id": 57, 
          "name": "Chinese Massage"
        }, 
        {
          "url": "/dubai/salons-and-spas", 
          "slug": "lymphatic-massage", 
          "id": 65, 
          "name": "Lymphatic Massage"
        }, 
        {
          "url": "/dubai/salons-and-spas", 
          "slug": "couple-massage", 
          "id": 75, 
          "name": "Couple Massage"
        }, 
        {
          "url": "/dubai/salons-and-spas", 
          "slug": "ayurvedic-massage", 
          "id": 79, 
          "name": "Ayurvedic Massage"
        }, 
        {
          "url": "/dubai/salons-and-spas", 
          "slug": "reflexology", 
          "id": 105, 
          "name": "Reflexology"
        }, 
        {
          "url": "/dubai/salons-and-spas", 
          "slug": "shiatsu-massage", 
          "id": 106, 
          "name": "Shiatsu Massage"
        }, 
        {
          "url": "/dubai/salons-and-spas", 
          "slug": "balinese-massage", 
          "id": 107, 
          "name": "Balinese Massage"
        }, 
        {
          "url": "/dubai/salons-and-spas", 
          "slug": "hand-massage", 
          "id": 115, 
          "name": "Hand Massage"
        }, 
        {
          "url": "/dubai/salons-and-spas", 
          "slug": "pregnancy-massage", 
          "id": 116, 
          "name": "Pregnancy Massage"
        }
      ], 
      "id": 36, 
      "name": "Massage"
    }, 
    {
      "url": "/dubai/salons-and-spas", 
      "slug": "nails", 
      "children": [
        {
          "url": "/dubai/salons-and-spas", 
          "slug": "gel-nails", 
          "id": 46, 
          "name": "Gel Nails"
        }, 
        {
          "url": "/dubai/salons-and-spas", 
          "slug": "manicure", 
          "id": 47, 
          "name": "Manicure"
        }, 
        {
          "url": "/dubai/salons-and-spas", 
          "slug": "nail-extensions", 
          "id": 48, 
          "name": "Nail Extensions"
        }, 
        {
          "url": "/dubai/salons-and-spas", 
          "slug": "pedicure", 
          "id": 49, 
          "name": "Pedicure"
        }, 
        {
          "url": "/dubai/salons-and-spas", 
          "slug": "filing-polish", 
          "id": 55, 
          "name": "Filing and Polish"
        }, 
        {
          "url": "/dubai/salons-and-spas", 
          "slug": "nail-art", 
          "id": 77, 
          "name": "Nail Art"
        }, 
        {
          "url": "/dubai/salons-and-spas", 
          "slug": "french-pedicure", 
          "id": 117, 
          "name": "French Pedicure"
        }, 
        {
          "url": "/dubai/salons-and-spas", 
          "slug": "french-manicure", 
          "id": 118, 
          "name": "French Manicure"
        }, 
        {
          "url": "/dubai/salons-and-spas", 
          "slug": "gel-manicure", 
          "id": 119, 
          "name": "Gel Manicure"
        }, 
        {
          "url": "/dubai/salons-and-spas", 
          "slug": "gel-pedicure", 
          "id": 120, 
          "name": "Gel Pedicure"
        }, 
        {
          "url": "/dubai/salons-and-spas", 
          "slug": "parrafin-treatment", 
          "id": 121, 
          "name": "Parrafin Treatment"
        }
      ], 
      "id": 45, 
      "name": "Nails"
    }, 
    {
      "url": "/dubai/salons-and-spas", 
      "slug": "clinical", 
      "children": [
        {
          "url": "/dubai/salons-and-spas", 
          "slug": "laser-lipo", 
          "id": 6, 
          "name": "Laser Lipo"
        }, 
        {
          "url": "/dubai/salons-and-spas", 
          "slug": "liposuction", 
          "id": 7, 
          "name": "Liposuction"
        }, 
        {
          "url": "/dubai/salons-and-spas", 
          "slug": "microdermabrasion", 
          "id": 20, 
          "name": "Microdermabrasion"
        }, 
        {
          "url": "/dubai/salons-and-spas", 
          "slug": "hair-transplant-treatments", 
          "id": 28, 
          "name": "Hair Transplant Treatments"
        }, 
        {
          "url": "/dubai/salons-and-spas", 
          "slug": "permanent-make-up", 
          "id": 64, 
          "name": "Permanent Make Up"
        }, 
        {
          "url": "/dubai/salons-and-spas", 
          "slug": "laser-hair-removal", 
          "id": 67, 
          "name": "Laser Hair Removal"
        }, 
        {
          "url": "/dubai/salons-and-spas", 
          "slug": "botox", 
          "id": 71, 
          "name": "Botox"
        }, 
        {
          "url": "/dubai/salons-and-spas", 
          "slug": "dermal-fillers", 
          "id": 93, 
          "name": "Dermal Fillers"
        }, 
        {
          "url": "/dubai/salons-and-spas", 
          "slug": "skin-rejuvenation", 
          "id": 94, 
          "name": "Skin Rejuvenation"
        }, 
        {
          "url": "/dubai/salons-and-spas", 
          "slug": "skin-tightening", 
          "id": 95, 
          "name": "Skin Tightening"
        }, 
        {
          "url": "/dubai/salons-and-spas", 
          "slug": "medi-facials", 
          "id": 96, 
          "name": "Medi Facial"
        }, 
        {
          "url": "/dubai/salons-and-spas", 
          "slug": "chemical-peel", 
          "id": 97, 
          "name": "Chemical Peel"
        }, 
        {
          "url": "/dubai/salons-and-spas", 
          "slug": "face-lift", 
          "id": 98, 
          "name": "Face Lift"
        }, 
        {
          "url": "/dubai/salons-and-spas", 
          "slug": "breast-implants", 
          "id": 99, 
          "name": "Breast Implants"
        }, 
        {
          "url": "/dubai/salons-and-spas", 
          "slug": "rhinoplasty", 
          "id": 100, 
          "name": "Rhinoplasty"
        }, 
        {
          "url": "/dubai/salons-and-spas", 
          "slug": "lip-augmentation", 
          "id": 101, 
          "name": "Lip Augmentation"
        }, 
        {
          "url": "/dubai/salons-and-spas", 
          "slug": "mesotherapy", 
          "id": 102, 
          "name": "Mesotherapy"
        }, 
        {
          "url": "/dubai/salons-and-spas", 
          "slug": "pigmentation-treatment", 
          "id": 103, 
          "name": "Pigmentation Treatments"
        }, 
        {
          "url": "/dubai/salons-and-spas", 
          "slug": "tattoo-removal", 
          "id": 122, 
          "name": "Tattoo Removal"
        }
      ], 
      "id": 63, 
      "name": "Clinical "
    }, 
    {
      "url": "/dubai/salons-and-spas", 
      "slug": "fitness", 
      "children": [
        {
          "url": "/dubai/salons-and-spas", 
          "slug": "weight-loss-treatments", 
          "id": 12, 
          "name": "Weight Loss Treatments"
        }, 
        {
          "url": "/dubai/salons-and-spas", 
          "slug": "gym", 
          "id": 86, 
          "name": "Gym"
        }, 
        {
          "url": "/dubai/salons-and-spas", 
          "slug": "yoga", 
          "id": 87, 
          "name": "Yoga"
        }, 
        {
          "url": "/dubai/salons-and-spas", 
          "slug": "pilates", 
          "id": 88, 
          "name": "Pilates"
        }, 
        {
          "url": "/dubai/salons-and-spas", 
          "slug": "kick-boxing", 
          "id": 89, 
          "name": "Kick Boxing"
        }, 
        {
          "url": "/dubai/salons-and-spas", 
          "slug": "zumba", 
          "id": 90, 
          "name": "Zumba"
        }, 
        {
          "url": "/dubai/salons-and-spas", 
          "slug": "aerobics", 
          "id": 91, 
          "name": "Aerobics"
        }, 
        {
          "url": "/dubai/salons-and-spas", 
          "slug": "martial-arts", 
          "id": 92, 
          "name": "Martial Arts"
        }, 
        {
          "url": "/dubai/salons-and-spas", 
          "slug": "swimming", 
          "id": 123, 
          "name": "Swimming"
        }, 
        {
          "url": "/dubai/salons-and-spas", 
          "slug": "diet-consulting", 
          "id": 125, 
          "name": "Diet Consulting "
        }
      ], 
      "id": 85, 
      "name": "Fitness"
    }
  ], 
  "success": "1"
}