
{
  "debug": {
    "flag": 28, 
    "session_search_parameters": "query|zone1|city1|cost|category|service|highlight", 
    "session_search_page": 0, 
    "session_parameters": "query|zone1|city1|cost|category|service|highlight", 
    "most_banners_count": 7
  }, 
  "business": {
    "id": "7160",
    "name": "Queens Beauty Lounge",
    "description": "With Queens Beauty Lounge Spa & Salon,\u2019 enhancing beauty naturally offering a wide range of modern innovative beauty services with grooming& wellness, you are in to experience the best treatments using the best products. The services are provided by our experienced and well trained personnel's. \r\nWe offer various treatments ranging from face, body, hair, nail &eyelash extensions and professional make up.",
    "phone": [
      "+97144214267 ",
      "+971563292525"
    ],
    "email": [
      " info@queensbeautylounge.com"
    ],
    "website": "www.queensbeautylounge.com",
    "geolocated": "0",
    "zone_id": "55",
    "geolocation_city": "Dubai",
    "geolocation_state": "Dubai",
    "geolocation_country": "AE",
    "geolocation_address": "",
    "created_at": "2015-11-28 11:14:48",
    "updated_at": "2016-06-12 02:19:58",
    "slug": "queens-beauty-lounge-jumeirah-lakes-towers-jlt",
    "active": "active",
    "facebook": "www.facebook.com\/queensbeautylounge",
    "twitter": "https:\/\/twitter.com\/qblspa",
    "instagram": "@queensbeautylounge_marina",
    "google": "",
    "chain_id": "513",
    "landmark": "Shop 1, Swiss Tower, Cluster Y, Jumeriah Lakes Towers, Dubai",
    "created_by_id": "24",
    "updated_by_id": "7",
    "deleted_by_id": "0",
    "geolocation_longitude": "55.15302277",
    "geolocation_latitude": "25.07826042",
    "rate_card_count": "7",
    "image_count": "6",
    "reviews_count": "5",
    "favorites_count": "1",
    "checkins_count": "0",
    "services_count": "22",
    "categories_count": "1",
    "highlights_count": "3",
    "timings_count": "2",
    "zone_cache": "Jumeirah Lakes Towers (JLT)",
    "rating_average": "4.00",
    "meta": {
      "photo": "http:\/\/s3.amazonaws.com\/mazkaracdn\/images\/26370\/medium\/5.jpg",
      "thumbnail": "http:\/\/s3.amazonaws.com\/mazkaracdn\/images\/26370\/small\/5.jpg",
      "services": {
        "17": "Facial",
        "58": "Bleach",
        "46": "Gel Nails",
        "47": "Manicure",
        "49": "Pedicure",
        "15": "Eyebrow and Eyelash Treatments",
        "16": "Eyelash Extensions",
        "48": "Nail Extensions",
        "55": "Filing and Polish",
        "77": "Nail Art",
        "104": "Skin Care",
        "18": "Makeup",
        "22": "Blow Dry",
        "23": "Hair Colour and Highlights",
        "25": "Hair Cut",
        "29": "Keratin Treatments",
        "50": "Hair Spa",
        "32": "Brazilian Wax",
        "34": "Threading",
        "35": "Waxing",
        "53": "Full Body Massage",
        "108": "Basic Massage"
      },
      "categories": {
        "1": "Salon",
        "11": "Nail Service",
        "12": "Hair Service"
      },
      "zone": {
        "id": "55",
        "parent_id": "48",
        "lft": "135",
        "rgt": "136",
        "depth": "2",
        "name": "Jumeirah Lakes Towers (JLT)",
        "description": "",
        "created_at": "2015-02-05 23:55:25",
        "updated_at": "2016-06-05 06:18:30",
        "slug": "jumeirah-lakes-towers-jlt",
        "business_count": "115",
        "country_code": "AE",
        "state": "active",
        "city_id": "1",
        "business_zone_id": "9",
        "time_zone": "Asia\/Dubai",
        "is_displayable": "1",
        "latitude": null,
        "longitude": null
      },
      "highlights": {
        "15": "Credit Card",
        "4": "Ladies",
        "11": "Wi-fi"
      },
      "current_numbers": [
        "+97142753011"
      ],
      "offers": [
        
      ]
    },
    "active_deals_count": "0",
    "total_deals_count": "0",
    "total_packages_count": "0",
    "active_packages_count": "0",
    "total_ratings_count": "2",
    "cost_estimate": "2",
    "active_offers_count": "0",
    "city_id": "1",
    "ref": "",
    "lot_id": "",
    "has_sample_menu": "0",
    "has_stock_cover_image": "0",
    "popularity": "58",
    "type": "business",
    "is_featured": "0",
    "is_rich": "0",
    "cover_x_pos": "0",
    "cover_y_pos": "0",
    "is_home_service": "0",
    "facebook_like_box_id": null,
    "facebook_like_box_status": "inactive",
    "pre_right_column_html": "",
    "aliases": "",
    "facebook_like_box_valid_until": "2016-10-01",
    "zone": {
      "id": "55",
      "parent_id": "48",
      "lft": "135",
      "rgt": "136",
      "depth": "2",
      "name": "Jumeirah Lakes Towers (JLT)",
      "description": "",
      "created_at": "2015-02-06 00:55:25",
      "updated_at": "2016-06-05 07:18:30",
      "slug": "jumeirah-lakes-towers-jlt",
      "business_count": "115",
      "country_code": "AE",
      "state": "active",
      "city_id": "1",
      "business_zone_id": "9",
      "time_zone": "Asia\/Dubai",
      "is_displayable": "1",
      "latitude": null,
      "longitude": null
    },
    "city": {
      "id": "1",
      "parent_id": null,
      "lft": "1",
      "rgt": "168",
      "depth": "0",
      "name": "Dubai",
      "description": "",
      "created_at": "2015-02-06 00:55:24",
      "updated_at": "2016-06-05 07:13:41",
      "slug": "dubai",
      "business_count": "30",
      "country_code": "AE",
      "state": "active",
      "city_id": "0",
      "business_zone_id": "0",
      "time_zone": "Asia\/Dubai",
      "is_displayable": "1",
      "latitude": null,
      "longitude": null
    },
    "cover":{
      "photo": "http:\/\/s3.amazonaws.com\/mazkaracdn\/images\/26370\/base\/5.jpg",
      "thumbnail": "http:\/\/s3.amazonaws.com\/mazkaracdn\/images\/26370\/small\/5.jpg"
    },
    "timings": [
      {
        "id": "8213",
        "business_id": "7160",
        "open": "10:00:00",
        "close": "20:30:00",
        "created_at": "2015-11-28 11:15:43",
        "updated_at": "2015-12-16 18:43:02",
        "daysOfWeek": "Sat Thu Wed Tue Mon Sun",
        "open_utc": "06:00:00",
        "close_utc": "16:30:00",
        "timezone": "Asia\/Dubai"
      },
      {
        "id": "8214",
        "business_id": "7160",
        "open": "11:00:00",
        "close": "21:00:00",
        "created_at": "2015-11-28 11:15:43",
        "updated_at": "2015-12-16 18:43:02",
        "daysOfWeek": "Fri",
        "open_utc": "07:00:00",
        "close_utc": "17:00:00",
        "timezone": "Asia\/Dubai"
      }
    ],
    "highlights": [
      {
        "id": "15",
        "name": "Credit Card",
        "slug": "credit-card"
      },
      {
        "id": "4",
        "name": "Ladies",
        "slug": "ladies-only"
      },
      {
        "id": "11",
        "name": "Wi-fi",
        "slug": "wi-fi"
      }
    ]
  },
  "favorited_suggested_spas": [
    
  ],
  "ads": {
    "1": {
      "id": "23",
      "title": "Queens Beauty Lounge",
      "caption": "Hair Wash + Blow Dry",
      "url": "http:\/\/www.mazkara.com\/dubai\/salons-spas-and-fitness-chain\/queens-beauty-lounge",
      "itemable_type": "App\\Models\\Group",
      "itemable_id": "513",
      "created_at": "2015-12-01 01:03:54",
      "updated_at": "2016-05-29 09:05:39",
      "ad_set_id": "25",
      "city_id": "0",
      "corner_text": "JLT",
      "corner_text_color": "white",
      "headline": "AED49",
      "slot": "1",
      "merchant_id": "31",
      "photo_url": "http:\/\/s3.amazonaws.com\/mazkaracdn\/images\/30175\/banner\/_MG_5556_07.jpg"
    },
    "8": {
      "id": "13",
      "title": "Beauty Beat Salon",
      "caption": "Say Goodbye to frizzy and unmanageable hair with Hair Botox Treatment starting at AED 199 only.",
      "url": "http:\/\/www.mazkara.com\/dubai\/beauty-beat-salon-jumeirah-lakes-towers-jlt",
      "itemable_type": "App\\Models\\Business",
      "itemable_id": "2098",
      "created_at": "2015-08-31 23:17:40",
      "updated_at": "2016-05-29 09:05:39",
      "ad_set_id": "13",
      "city_id": "0",
      "corner_text": "New Dubai",
      "corner_text_color": "white",
      "headline": "",
      "slot": "8",
      "merchant_id": "20",
      "photo_url": "http:\/\/s3.amazonaws.com\/mazkaracdn\/images\/18785\/banner\/LOP_SLS_1023_Slide_01.jpg"
    },
    "10": {
      "id": "60",
      "title": "Amazing Things can happen",
      "caption": "Lovely singh at your service",
      "url": "http:\/\/www.yahoo.com",
      "itemable_type": "",
      "itemable_id": "0",
      "created_at": "2016-04-11 16:38:52",
      "updated_at": "2016-04-11 16:38:52",
      "ad_set_id": "26",
      "city_id": "0",
      "corner_text": "",
      "corner_text_color": "white",
      "headline": "",
      "slot": "10",
      "merchant_id": "31",
      "photo_url": "http:\/\/s3.amazonaws.com\/mazkaracdn\/images\/30336\/banner\/Cancun-Beach-29.jpg"
    },
    "13": {
      "id": "41",
      "title": "Olive Beauty's Hut",
      "caption": "Rejuvenating Hair Mask + Hot Oil Massage",
      "url": "http:\/\/www.mazkara.com\/dubai\/olive-beautys-hut-discovery-gardens",
      "itemable_type": "",
      "itemable_id": "0",
      "created_at": "2016-02-02 14:22:24",
      "updated_at": "2016-02-03 18:04:24",
      "ad_set_id": "35",
      "city_id": "0",
      "corner_text": "Discovery Gardens",
      "corner_text_color": "black",
      "headline": "AED 60",
      "slot": "13",
      "merchant_id": "101",
      "photo_url": "http:\/\/s3.amazonaws.com\/mazkaracdn\/images\/30042\/banner\/banner3.jpg"
    }
  },
  "breadcrumbs": {
    
  },
  "suggested_spas": [
    {
      "id": "388",
      "name": "De La Mer Day Spa",
      "slug": "de-la-mer-day-spa-umm-suqeim",
      "zone_cache": "Umm Suqeim",
      "reviews_count": "0",
      "total_ratings_count": "8",
      "photo": "http:\/\/s3.amazonaws.com\/mazkaracdn\/images\/5362\/medium\/IMG_4349.JPG",
      "thumbnail": "http:\/\/s3.amazonaws.com\/mazkaracdn\/images\/5362\/small\/IMG_4349.JPG",
      "meta": {
        "photo": "http:\/\/s3.amazonaws.com\/mazkaracdn\/images\/5362\/medium\/IMG_4349.JPG",
        "thumbnail": "http:\/\/s3.amazonaws.com\/mazkaracdn\/images\/5362\/small\/IMG_4349.JPG",
        "services": {
          "59": "Body Scrub",
          "42": "Swedish Massage",
          "52": "Hot Oil Massage",
          "47": "Manicure",
          "49": "Pedicure",
          "108": "Basic Massage"
        },
        "categories": {
          "2": "Spa",
          "11": "Nail Service"
        },
        "zone": {
          "id": "47",
          "parent_id": "40",
          "lft": "117",
          "rgt": "118",
          "depth": "2",
          "name": "Umm Suqeim",
          "description": "",
          "created_at": "2015-02-06 00:55:25",
          "updated_at": "2016-06-05 17:39:39",
          "slug": "umm-suqeim",
          "business_count": "84",
          "country_code": "AE",
          "state": "active",
          "city_id": "1",
          "business_zone_id": "8",
          "time_zone": "Asia\/Dubai",
          "is_displayable": "1",
          "latitude": "25.15029",
          "longitude": "55.20642"
        },
        "highlights": {
          "1": "Parking Available",
          "3": "Walk Ins Allowed",
          "4": "Ladies",
          "9": "Refreshments Served",
          "11": "Wi-fi",
          "15": "Credit Card"
        },
        "current_numbers": [
          "+97143282775"
        ],
        "offers": [
          
        ]
      },
      "rating_average": "4.75"
    },
    {
      "id": "390",
      "name": "Deens Nail & Hair Salon",
      "slug": "deens-nail-hair-salon-oud-metha",
      "zone_cache": "Oud Metha",
      "reviews_count": "0",
      "total_ratings_count": "8",
      "photo": "https:\/\/s3.amazonaws.com\/mazkaracdn\/stock\/20.jpg",
      "thumbnail": "https:\/\/s3.amazonaws.com\/mazkaracdn\/stock\/20.jpg",
      "meta": {
        "photo": "https:\/\/s3.amazonaws.com\/mazkaracdn\/stock\/20.jpg",
        "thumbnail": "https:\/\/s3.amazonaws.com\/mazkaracdn\/stock\/20.jpg",
        "services": {
          "17": "Facial",
          "22": "Blow Dry",
          "23": "Hair Colour and Highlights",
          "25": "Hair Cut",
          "27": "Hair Straightening",
          "29": "Keratin Treatments",
          "50": "Hair Spa",
          "32": "Brazilian Wax",
          "34": "Threading",
          "35": "Waxing",
          "58": "Bleach",
          "46": "Gel Nails",
          "47": "Manicure",
          "49": "Pedicure",
          "55": "Filing and Polish",
          "108": "Basic Massage",
          "53": "Full Body Massage"
        },
        "categories": {
          "1": "Salon",
          "11": "Nail Service",
          "12": "Hair Service"
        },
        "zone": {
          "id": "17",
          "parent_id": "11",
          "lft": "49",
          "rgt": "50",
          "depth": "2",
          "name": "Oud Metha",
          "description": "",
          "created_at": "2015-02-06 00:55:24",
          "updated_at": "2016-06-05 07:18:29",
          "slug": "oud-metha",
          "business_count": "71",
          "country_code": "AE",
          "state": "active",
          "city_id": "1",
          "business_zone_id": "5",
          "time_zone": "Asia\/Dubai",
          "is_displayable": "1",
          "latitude": null,
          "longitude": null
        },
        "highlights": {
          "1": "Parking Available",
          "3": "Walk Ins Allowed",
          "4": "Ladies",
          "10": "Deals Available"
        },
        "current_numbers": [
          "+97143373557"
        ],
        "offers": [
          
        ]
      },
      "rating_average": "4.00"
    },
    {
      "id": "391",
      "name": "Deja Vu Beauty Salon",
      "slug": "deja-vu-beauty-salon-oud-metha",
      "zone_cache": "Oud Metha",
      "reviews_count": "1",
      "total_ratings_count": "8",
      "photo": "http:\/\/s3.amazonaws.com\/mazkaracdn\/images\/651\/medium\/FullSizeRender.jpg",
      "thumbnail": "http:\/\/s3.amazonaws.com\/mazkaracdn\/images\/651\/small\/FullSizeRender.jpg",
      "meta": {
        "photo": "http:\/\/s3.amazonaws.com\/mazkaracdn\/images\/651\/medium\/FullSizeRender.jpg",
        "thumbnail": "http:\/\/s3.amazonaws.com\/mazkaracdn\/images\/651\/small\/FullSizeRender.jpg",
        "services": {
          "8": "Moroccan Bath",
          "17": "Facial",
          "18": "Makeup",
          "22": "Blow Dry",
          "23": "Hair Colour and Highlights",
          "25": "Hair Cut",
          "27": "Hair Straightening",
          "29": "Keratin Treatments",
          "50": "Hair Spa",
          "32": "Brazilian Wax",
          "34": "Threading",
          "35": "Waxing",
          "58": "Bleach",
          "41": "Stone Massage Therapy",
          "53": "Full Body Massage",
          "46": "Gel Nails",
          "47": "Manicure",
          "48": "Nail Extensions",
          "49": "Pedicure",
          "55": "Filing and Polish",
          "108": "Basic Massage",
          "104": "Skin Care",
          "15": "Eyebrow and Eyelash Treatments",
          "109": "Hair Styling",
          "105": "Reflexology",
          "77": "Nail Art"
        },
        "categories": {
          "1": "Salon",
          "2": "Spa",
          "11": "Nail Service",
          "12": "Hair Service"
        },
        "zone": {
          "id": "17",
          "parent_id": "11",
          "lft": "49",
          "rgt": "50",
          "depth": "2",
          "name": "Oud Metha",
          "description": "",
          "created_at": "2015-02-06 00:55:24",
          "updated_at": "2016-06-05 07:18:29",
          "slug": "oud-metha",
          "business_count": "71",
          "country_code": "AE",
          "state": "active",
          "city_id": "1",
          "business_zone_id": "5",
          "time_zone": "Asia\/Dubai",
          "is_displayable": "1",
          "latitude": null,
          "longitude": null
        },
        "highlights": {
          "1": "Parking Available",
          "3": "Walk Ins Allowed",
          "4": "Ladies",
          "10": "Deals Available",
          "15": "Credit Card"
        },
        "current_numbers": [
          "+971504626235",
          "+97143347472",
          "+971506344771"
        ],
        "offers": [
          
        ]
      },
      "rating_average": "3.89"
    },
    {
      "id": "400",
      "name": "Dermacare Skin Centre",
      "slug": "dermacare-skin-centre-jumeirah-1",
      "zone_cache": "Jumeirah 1",
      "reviews_count": "0",
      "total_ratings_count": "8",
      "photo": "http:\/\/s3.amazonaws.com\/mazkaracdn\/images\/1177\/medium\/image.jpg",
      "thumbnail": "http:\/\/s3.amazonaws.com\/mazkaracdn\/images\/1177\/small\/image.jpg",
      "meta": {
        "photo": "http:\/\/s3.amazonaws.com\/mazkaracdn\/images\/1177\/medium\/image.jpg",
        "thumbnail": "http:\/\/s3.amazonaws.com\/mazkaracdn\/images\/1177\/small\/image.jpg",
        "services": {
          "14": "Acne Treatment",
          "20": "Microdermabrasion",
          "104": "Skin Care"
        },
        "categories": {
          "6": "Cosmetic Clinic"
        },
        "zone": {
          "id": "42",
          "parent_id": "40",
          "lft": "107",
          "rgt": "108",
          "depth": "2",
          "name": "Jumeirah 1",
          "description": "",
          "created_at": "2015-02-06 00:55:24",
          "updated_at": "2016-06-05 17:39:39",
          "slug": "jumeirah-1",
          "business_count": "97",
          "country_code": "AE",
          "state": "active",
          "city_id": "1",
          "business_zone_id": "8",
          "time_zone": "Asia\/Dubai",
          "is_displayable": "1",
          "latitude": "25.22614",
          "longitude": "55.25895"
        },
        "highlights": {
          "1": "Parking Available",
          "2": "Appointment Only",
          "5": "Unisex",
          "15": "Credit Card"
        },
        "current_numbers": [
          "+97143420088"
        ],
        "offers": [
          
        ]
      },
      "rating_average": "4.12"
    },
    {
      "id": "401",
      "name": "Dermalase Clinic",
      "slug": "dermalase-clinic-jumeirah-2",
      "zone_cache": "Jumeirah 2",
      "reviews_count": "0",
      "total_ratings_count": "8",
      "photo": "http:\/\/s3.amazonaws.com\/mazkaracdn\/images\/1222\/medium\/image.jpg",
      "thumbnail": "http:\/\/s3.amazonaws.com\/mazkaracdn\/images\/1222\/small\/image.jpg",
      "meta": {
        "photo": "http:\/\/s3.amazonaws.com\/mazkaracdn\/images\/1222\/medium\/image.jpg",
        "thumbnail": "http:\/\/s3.amazonaws.com\/mazkaracdn\/images\/1222\/small\/image.jpg",
        "services": {
          "14": "Acne Treatment",
          "104": "Skin Care",
          "6": "Laser Lipo",
          "67": "Laser Hair Removal",
          "71": "Botox",
          "93": "Dermal Fillers",
          "95": "Skin Tightening",
          "96": "Medi Facial",
          "102": "Mesotherapy",
          "97": "Chemical Peel",
          "98": "Face Lift",
          "101": "Lip Augmentation"
        },
        "categories": {
          "6": "Cosmetic Clinic",
          "2": "Spa"
        },
        "zone": {
          "id": "43",
          "parent_id": "40",
          "lft": "109",
          "rgt": "110",
          "depth": "2",
          "name": "Jumeirah 2",
          "description": "",
          "created_at": "2015-02-06 00:55:24",
          "updated_at": "2016-06-05 17:39:39",
          "slug": "jumeirah-2",
          "business_count": "28",
          "country_code": "AE",
          "state": "active",
          "city_id": "1",
          "business_zone_id": "8",
          "time_zone": "Asia\/Dubai",
          "is_displayable": "1",
          "latitude": "25.20065",
          "longitude": "55.24502"
        },
        "highlights": {
          "3": "Walk Ins Allowed",
          "5": "Unisex",
          "9": "Refreshments Served",
          "15": "Credit Card",
          "17": "Medi-Spa"
        },
        "current_numbers": [
          "+97143497880"
        ],
        "offers": [
          
        ]
      },
      "rating_average": "3.88"
    }
  ],
  "suggested_salons": [
    
  ],

  "services": [
    {
      "parent":"body",
      "services": [
        {
          "name":"Bleach",
          "cost":"AED 65+"
        },
        {
          "name":"Skin Care",
          "cost":"AED 50+"
        }
      ]
    },{
      "parent":"Face",
      "services": [
        {
          "name":"Facial",
          "cost":"AED 250+"
        },
        {
          "name":"Eyebrow and Eyelash Treatments",
          "cost":"AED 40+"
        },
        {
          "name":"Eyelash Extensions",
          "cost":"AED 350+"
        },
        {
          "name":"Makeup",
          "cost":"AED 100+"
        }
      ]
    },{
      "parent":"Hair",
      "services": [
        {
          "name":"Blow Dry",
          "cost":"AED 80+"
        },
        {
          "name":"Hair color and Highlights",
          "cost":"AED 150+"
        },
        {
          "name":"Hair cut",
          "cost":"AED 100+"
        },
        {
          "name":"Keratin Treatments",
          "cost":"AED 1000+"
        }
      ]
    }
  ],

  "rateCards": [
    {
      "photo": "http://lorempixel.com/800/600/sports/1",
      "thumbnail": "http://lorempixel.com/100/100/sports/1"
    },
    {
      "photo": "http://lorempixel.com/800/600/sports/2",
      "thumbnail": "http://lorempixel.com/100/100/sports/2"
    },
    {
      "photo": "http://lorempixel.com/800/600/sports/3",
      "thumbnail": "http://lorempixel.com/100/100/sports/3"
    },
    {
      "photo": "http://lorempixel.com/800/600/sports/4",
      "thumbnail": "http://lorempixel.com/100/100/sports/4"
    },
    {
      "photo": "http://lorempixel.com/800/600/sports/5",
      "thumbnail": "http://lorempixel.com/100/100/sports/5"
    },
    {
      "photo": "http://lorempixel.com/800/600/sports/6",
      "thumbnail": "http://lorempixel.com/100/100/sports/6"
    },
    {
      "photo": "http://lorempixel.com/800/600/sports/7",
      "thumbnail": "http://lorempixel.com/100/100/sports/7"
    }
  ],
  "photos": [
    {
      "photo": "http://lorempixel.com/800/600/abstract/1",
      "thumbnail": "http://lorempixel.com/100/100/abstract/1"
    },
    {
      "photo": "http://lorempixel.com/800/600/abstract/2",
      "thumbnail": "http://lorempixel.com/100/100/abstract/2"
    },
    {
      "photo": "http://lorempixel.com/800/600/abstract/3",
      "thumbnail": "http://lorempixel.com/100/100/abstract/3"
    },
    {
      "photo": "http://lorempixel.com/800/600/abstract/4",
      "thumbnail": "http://lorempixel.com/100/100/abstract/4"
    },
    {
      "photo": "http://lorempixel.com/800/600/abstract/5",
      "thumbnail": "http://lorempixel.com/100/100/abstract/5"
    },
    {
      "photo": "http://lorempixel.com/800/600/abstract/6",
      "thumbnail": "http://lorempixel.com/100/100/abstract/6"
    }
  ],
  "offers": [
    
  ],
  "highlights": [
    {
      "id": "15",
      "name": "Credit Card",
      "slug": "credit-card"
    },
    {
      "id": "4",
      "name": "Ladies",
      "slug": "ladies-only"
    },
    {
      "id": "11",
      "name": "Wi-fi",
      "slug": "wi-fi"
    }
  ],
  "phones": [
    "+97142753011"
  ],
  "reviews": [
    {
      "id": "7103",
      "body": "I visited this place recently as one of my friends had recommended it to me. I was really impressed with how welcoming the staff was and how they made me feel really comfortable. I got a facial and blow dry done  and was very happy with the end result. I would definitely make this place a regular now.",
      "user_id": "2018",
      "business_id": "7160",
      "rating": "3.50",
      "flags": "",
      "ip": null,
      "type": "",
      "is_cheat": "0",
      "number_of_likes": "0",
      "number_of_comments": "0",
      "number_of_shares": "0",
      "created_at": "2015-02-06 00:55:24",
      "updated_at": "2016-06-05 17:39:39",
      "services": [
        {
          "id": "11",
          "name": "Steam and Sauna Therapy",
          "slug": "steam-sauna-therapy"
        },
        {
          "id": "17",
          "name": "Facial",
          "slug": "facials"
        },
        {
          "id": "22",
          "name": "Blow Dry",
          "slug": "blowdry"
        }
      ],
      "user": {
        "id": "2018",
        "username": "",
        "email": "i_am_a_cool_rockstar@msn.com",
        "name": "Syeda Nausheen",
        "slug": "-1992",
        "ratings_count": "0",
        "reviews_count": "6",
        "check_ins_count": "0",
        "followers_count": "0",
        "follows_count": "0",
        "designation": "",
        "designated_at_text": "",
        "designated_at_url": ""
      },
      "comments": [
        
      ]
    },
    {
      "id": "7101",
      "body": "I recently discovered this amazin place in JLT and undoubtedly this is going to be my go to salon now. I went in for a head massage and mani pedi plus nail extentions. They have a bunch of talented girls out there who're fantastic at their job and thats what will make me come again to a place like this. They have a soothing ambience and friendly staff that makes it all the more a refreshing experience for the customer. \nI have recently noticed a slight hike in the prices for few of the services which seems to be a lil dissapointing and hope they go back to their original prices soon! \nOverall I would definetely visit this place time and again.",
      "user_id": "2021",
      "business_id": "7160",
      "rating": "4.00",
      "flags": "",
      "ip": null,
      "type": "",
      "is_cheat": "0",
      "created_at": "2015-02-06 00:55:24",
      "updated_at": "2016-06-05 17:39:39",
      "number_of_likes": "0",
      "number_of_comments": "0",
      "number_of_shares": "0",
      "services": [
        {
          "id": "47",
          "name": "Manicure",
          "slug": "manicure"
        },
        {
          "id": "48",
          "name": "Nail Extensions",
          "slug": "nail-extensions"
        },
        {
          "id": "49",
          "name": "Pedicure",
          "slug": "pedicure"
        }
      ],
      "user": {
        "id": "2021",
        "username": null,
        "email": "Nadiya.afsar08@gmail.com",
        "name": "Nadiya fahim",
        "favorites_count": null,
        "slug": "-1995",
        "ratings_count": "0",
        "reviews_count": "1",
        "check_ins_count": "0",
        "followers_count": "0",
        "follows_count": "0",
        "phone": "",
        "designation": "",
        "designated_at_text": "",
        "designated_at_url": ""
      },
      "comments": [
        
      ]
    },
    {
      "id": "7097",
      "body": "Lovely place, will surely visit again. Excellent service :)",
      "user_id": "2020",
      "business_id": "7160",
      "rating": "4.00",
      "flags": "",
      "ip": null,
      "type": "",
      "is_cheat": "0",
      "number_of_likes": "0",
      "number_of_comments": "0",
      "number_of_shares": "0",
      "created_at": "2015-02-06 00:55:24",
      "updated_at": "2016-06-05 17:39:39",
      "services": [
        
      ],
      "user": {
        "id": "2020",
        "username": "",
        "email": "rubinak9321@gmail.com",
        "name": "Rubina Khambati",
        "favorites_count": null,
        "slug": "-1994",
        "ratings_count": "0",
        "reviews_count": "3",
        "check_ins_count": "0",
        "followers_count": "0",
        "follows_count": "0",
        "phone": "",
        "designation": "",
        "designated_at_text": "",
        "designated_at_url": ""
      },
      "comments": [
        
      ]
    },
    {
      "id": "6063",
      "body": "I've been going to Queens Beauty Lounge for the last 16 months since I moved into the building next door. I got a groupon which gave me an excellent deal at the time. 5 blow dries, 5 massages, 5 manicures, 5 pedicures and 5 hot oil therapies at AED 349. Who wasn't going to buy that in bulk!?\nI love the ambiance and I love the staff! The girls tease me that it's my home away from home because I spend a lot of time there.  \n\nAvita (who recently left) was my go to person for a quick hair wash a good dry, in 20 minutes, she'd my hair look fantastic! Now, Saiqa and Saddaf have taken over and do an equally amazing job! My theory, \"who needs shampoo when queens is literally downstairs?\"\n\nAfter a long day at work, there was nothing more comforting than going downstairs and having Yuli give you one of her amazing Balinese Massages. She's also a fabulous pedicurist! \n\nGloria gives FANTASTIC head massages.  Definitely a must try and be sure to add a wash and dry once you're done with that massage. \n\nManicures are a must with Loren. I get my nails painted twice a week just because i love being pampered by this team of staff. \n\nNot to forget Evelyn, the receptionist. She is such a pleasant person to walk in to be greeted by. She makes the effort to let you know what all the deals and packages are in advance and helps you find a deal that would suit your services best. A quick call to her, and she will make sure there is an available slot for me no matter what the services and notice time is. \n\n\nWhile I love going downstairs to Queens, I have to say, I hate the changes they have made with the pricing. At one point it used to be buy 5 get 1 free on the services, and that was a fabulous incentive to just buy packages and keep them. Now they have not only taken that away, but have also introduced a loyalty card with conditions! You can only get stamped if your service is over AED 100. How does that make sense? I go down and get threaded and costs me 20aed, or I get my nails painted, another 30aed, or a hair wash another 30aed, but none of it counts because each service is not equivalent to 100aed! \n\nThey used to have this fantastic deal on 30% off during happy hour between certain hours in the day. That was the perfect place to hang out during my lunch breaks. Even if I didn't have anything to do I would go anyway because it was such a great deal! That's gone too!\n\nThey've recently raised the prices for quite a number of the services, which I am not at all pleased about. It would be nice if they went back to their old prices. \n\n\n",
      "user_id": "1921",
      "business_id": "7160",
      "rating": "3.00",
      "flags": "",
      "ip": null,
      "type": "",
      "is_cheat": "0",
      "number_of_likes": "0",
      "number_of_comments": "0",
      "number_of_shares": "0",
      "created_at": "2015-02-06 00:55:24",
      "updated_at": "2016-06-05 17:39:39",

      "services": [
        {
          "id": "22",
          "name": "Blow Dry",
          "slug": "blowdry"
        },
        {
          "id": "53",
          "name": "Full Body Massage",
          "slug": "full-body-massage"
        },
        {
          "id": "47",
          "name": "Manicure",
          "slug": "manicure"
        }
      ],
      "user": {
        "id": "1921",
        "username": "",
        "email": "priyankanihalani@gmail.com",
        "name": "Priyanka Nihalani",
        "favorites_count": null,
        "slug": "-1895",
        "ratings_count": "1",
        "reviews_count": "0",
        "check_ins_count": "0",
        "followers_count": "0",
        "follows_count": "0",
        "phone": "",
        "designation": "",
        "designated_at_text": "",
        "designated_at_url": ""
      },
      "comments": [
        
      ]
    },
    {
      "id": "4606",
      "body": "went into the salon for a hair wash and blow dry, was pleasantly surprised how they took me in for my service without any wait; on time, especially since i went in on new years eve and they were brimming with customers.\r\nhair was shampooed and conditioned was relaxing and they did not hurry . having curly it is quite a task to tame them and get them straight,the very pleasant stylist didnt once did a beautiful job with my hair and was open to listening to my inputs as well. the products used were of good quality and the blow out lasted me a good 2 days. overall a very pleasant experience ",
      "user_id": "1847",
      "business_id": "7160",
      "rating": "4.00",
      "flags": "",
      "ip": null,
      "type": "",
      "is_cheat": "0",
      "number_of_likes": "0",
      "number_of_comments": "0",
      "number_of_shares": "0",
      "created_at": "2015-02-06 00:55:24",
      "updated_at": "2016-06-05 17:39:39",
      
      "services": [
        
      ],
      "user": {
        "id": "1847",
        "username": "",
        "email": "10156375996070125@facebook.com",
        "name": "Prerna Jaisingh",
        "favorites_count": null,
        "slug": "-1821",
        "ratings_count": "0",
        "reviews_count": "1",
        "check_ins_count": "0",
        "followers_count": "0",
        "follows_count": "0",
        "phone": "",
        "designation": "",
        "designated_at_text": "",
        "designated_at_url": ""
      },
      "comments": [
        
      ]
    }
  ]
}

