{
  "status": "S01", 
  "message": "Data fetched successfully", 
  "data": {
    "debug": {
      "flag": 28, 
      "session_search_parameters": "query|zone1|city1|cost|category|service|highlight", 
      "session_search_page": 0, 
      "session_parameters": "query|zone1|city1|cost|category|service|highlight", 
      "most_banners_count": 7
    }, 
    "AdsArray": [
      {
        "title": "Jam Beauty Lounge", 
        "headLine": "AED 99", 
        "imageURL": "http://d187hsnmfgmmaz.cloudfront.net/images/35050/banner/jam.jpg", 
        "itemableType": "Business", 
        "caption": "Moroccan Bath ", 
        "url": "http://www.mazkara.com/dubai/jam-beauty-lounge-al-garhoud", 
        "itemableID": "2935"
      }, 
      {
        "title": "Dreamworks Spa", 
        "headLine": "", 
        "imageURL": "http://d187hsnmfgmmaz.cloudfront.net/images/36071/banner/Dreams.jpg", 
        "itemableType": "Group", 
        "caption": "Traditional Balanese Massage ", 
        "url": "http://www.mazkara.com/dubai/salons-spas-and-fitness-chain/dreamworks-spa", 
        "itemableID": "161"
      }, 
      {
        "title": "Golden House Gents Spa Club", 
        "headLine": "", 
        "imageURL": "http://d187hsnmfgmmaz.cloudfront.net/images/36069/banner/gold.jpg", 
        "itemableType": "Business", 
        "caption": "Relaxing Massages | Book NOW!", 
        "url": "http://www.mazkara.com/dubai/golden-house-gents-spa-club-oud-metha", 
        "itemableID": "10630"
      }, 
      {
        "title": "Elizabeth Spa", 
        "headLine": "", 
        "imageURL": "http://d187hsnmfgmmaz.cloudfront.net/images/35037/banner/eliz.jpg", 
        "itemableType": "Business", 
        "caption": "Traditional Body Care Oil Massages", 
        "url": "http://www.mazkara.com/dubai/elizabeth-spa-jumeirah-lakes-towers-jlt", 
        "itemableID": "2108"
      }, 
      {
        "title": "Nail Concepts Ladies Beauty Center", 
        "headLine": "AED 195", 
        "imageURL": "http://d187hsnmfgmmaz.cloudfront.net/images/41551/banner/Nailconcept.jpg", 
        "itemableType": "Business", 
        "caption": "Full Set Gel Extensions", 
        "url": "http://www.fabogo.com/dubai/nail-concepts-ladies-beauty-center-oud-metha", 
        "itemableID": "7400"
      }, 
      {
        "title": "BBLUNT Hair & Care", 
        "headLine": "", 
        "imageURL": "http://d187hsnmfgmmaz.cloudfront.net/images/38068/banner/Bblunt.jpg", 
        "itemableType": "Business", 
        "caption": "Get a new look with BBlunt!", 
        "url": "http://www.fabogo.com/dubai/bblunt-hair-care-difc-1", 
        "itemableID": "2312"
      }, 
      {
        "title": "Bloom Aesthetic and Laser Clinic", 
        "headLine": "AED 149 ", 
        "imageURL": "http://d187hsnmfgmmaz.cloudfront.net/images/36760/banner/Bloomm.jpg", 
        "itemableType": "Business", 
        "caption": "Laser Hair Removal", 
        "url": "http://www.mazkara.com/dubai/bloom-aesthetic-and-laser-clinic-umm-suqeim", 
        "itemableID": "7415"
      }, 
      {
        "title": "High Unique Gents Personal Care Centre", 
        "headLine": "", 
        "imageURL": "http://d187hsnmfgmmaz.cloudfront.net/images/42696/banner/highuniqu.jpg", 
        "itemableType": "Business", 
        "caption": "Foot Massage, Hot Stone Massage ", 
        "url": "http://www.fabogo.com/dubai/high-unique-gents-personal-care-centre-deira-city-centre-dcc", 
        "itemableID": "2961"
      }, 
      {
        "title": "Bright Beauty Salon", 
        "headLine": "AED 50", 
        "imageURL": "http://d187hsnmfgmmaz.cloudfront.net/images/43614/banner/brighty.jpg", 
        "itemableType": "Business", 
        "caption": "Hair Wash + Blow Dry ", 
        "url": "http://www.mazkara.com/dubai/bright-beauty-salon-jumeirah-lakes-towers-jlt", 
        "itemableID": "2110"
      }, 
      {
        "title": "Cool Aroma Spa", 
        "headLine": "AED 460", 
        "imageURL": "http://d187hsnmfgmmaz.cloudfront.net/images/43274/banner/CoolBanner.jpg", 
        "itemableType": "Group", 
        "caption": "Moroccan Bath + 1 Hour Massage", 
        "url": "http://www.fabogo.com/dubai/salons-spas-and-fitness-chain/cool-aroma-gentlemens-spa", 
        "itemableID": "870"
      }, 
      {
        "title": "Neetas Herbal", 
        "headLine": "", 
        "imageURL": "http://d187hsnmfgmmaz.cloudfront.net/images/35100/banner/neeta.jpg", 
        "itemableType": "Business", 
        "caption": "Herbal Hair Care & Consultation", 
        "url": "http://www.mazkara.com/dubai/neetas-herbal-al-karama", 
        "itemableID": "1016"
      }, 
      {
        "title": "Riva International Spa", 
        "headLine": "", 
        "imageURL": "http://d187hsnmfgmmaz.cloudfront.net/images/40985/banner/riva.jpg", 
        "itemableType": "Group", 
        "caption": "Spa/Lazer Clinic", 
        "url": "http://www.fabogo.com/dubai/salons-spas-and-fitness-chain/riva-international-spa-laser-clinic", 
        "itemableID": "823"
      }, 
      {
        "title": "Baisan Massage Center", 
        "headLine": "", 
        "imageURL": "http://d187hsnmfgmmaz.cloudfront.net/images/39833/banner/baisan.jpg", 
        "itemableType": "Business", 
        "caption": "Chinese Oil Massage, Thai Oil Massage, Medical Massage", 
        "url": "http://www.fabogo.com/dubai/baison-massage-center-al-garhoud", 
        "itemableID": "2931"
      }, 
      {
        "title": "Pink Acupuncture Therapy Centre", 
        "headLine": "", 
        "imageURL": "http://d187hsnmfgmmaz.cloudfront.net/images/45329/banner/pink.jpg", 
        "itemableType": "Business", 
        "caption": " Hot Stone Massage Therapy, Full Body Massage", 
        "url": "http://www.fabogo.com/dubai/pink-acupuncture-therapy-centre-barsha-1", 
        "itemableID": "0"
      }
    ], 
    "businessArray": [
      {
        "servicesSelected": [], 
        "mediumCoverImageURL": "http://d187hsnmfgmmaz.cloudfront.net/images/25924/medium/1.jpg", 
        "smallCoverImageURL": "http://d187hsnmfgmmaz.cloudfront.net/images/25924/small/1.jpg", 
        "currency": "AED", 
        "address": "9th Floor, Shatha Tower, Behind Nakheel Metro Station, Dubai Media City, Dubai", 
        "citySlug": "dubai", 
        "slug": "dreamworks-spa-dubai-media-city", 
        "imageCount": 7, 
        "totalNumberOfVotes": 17, 
        "rateCardCount": 4, 
        "highlightArray": [
          {
            "id": 4, 
            "iconURL": "http://d187hsnmfgmmaz.cloudfront.net/mobile/icons/v2/ladies-only.png", 
            "name": "Ladies", 
            "slug": "ladies-only"
          }, 
          {
            "id": 6, 
            "iconURL": "http://d187hsnmfgmmaz.cloudfront.net/mobile/icons/v2/mens-only.png", 
            "name": "Men", 
            "slug": "mens-only"
          }, 
          {
            "id": 15, 
            "iconURL": "http://d187hsnmfgmmaz.cloudfront.net/mobile/icons/v2/credit-card.png", 
            "name": "Credit Card", 
            "slug": "credit-card"
          }
        ], 
        "name": "Dreamworks Spa", 
        "phoneNumberArray": [
          "+97142753001"
        ], 
        "popularity": 503, 
        "cityName": "Dubai", 
        "offerArray": [], 
        "cityID": 1, 
        "costEstimate": 2, 
        "isFavourite": "0", 
        "averageRating": 3.65
      }, 
      {
        "servicesSelected": [], 
        "mediumCoverImageURL": "http://d187hsnmfgmmaz.cloudfront.net/images/10541/medium/2.jpg", 
        "smallCoverImageURL": "http://d187hsnmfgmmaz.cloudfront.net/images/10541/small/2.jpg", 
        "currency": "AED", 
        "address": "Lake Level, Gold Crest Executive Tower, Cluster C, Jumeirah Lake Towers, Dubai", 
        "citySlug": "dubai", 
        "slug": "bright-beauty-salon-jumeirah-lakes-towers-jlt", 
        "imageCount": 6, 
        "totalNumberOfVotes": 26, 
        "rateCardCount": 6, 
        "highlightArray": [
          {
            "id": 4, 
            "iconURL": "http://d187hsnmfgmmaz.cloudfront.net/mobile/icons/v2/ladies-only.png", 
            "name": "Ladies", 
            "slug": "ladies-only"
          }, 
          {
            "id": 15, 
            "iconURL": "http://d187hsnmfgmmaz.cloudfront.net/mobile/icons/v2/credit-card.png", 
            "name": "Credit Card", 
            "slug": "credit-card"
          }
        ], 
        "name": "Bright Beauty Salon", 
        "phoneNumberArray": [
          "+97142753002"
        ], 
        "popularity": 470, 
        "cityName": "Dubai", 
        "offerArray": [
          {
            "validTill": "2016-12-15", 
            "currency": "AED", 
            "tag": "offer", 
            "originalPrice": 0, 
            "updatedAt": "2016-09-15 12:30:11", 
            "services": [], 
            "createdAt": "2015-08-17 12:20:23", 
            "title": "Hair Cut + Blow Dry", 
            "state": "active", 
            "offerPrice": 50, 
            "toc": "null", 
            "discount": "30", 
            "discountType": "percentage"
          }, 
          {
            "validTill": "2016-12-15", 
            "currency": "AED", 
            "tag": "", 
            "originalPrice": 0, 
            "updatedAt": "2016-08-10 07:34:38", 
            "services": [], 
            "createdAt": "2016-08-10 07:34:38", 
            "title": "Skin Tightening Facial", 
            "state": "active", 
            "offerPrice": 99, 
            "toc": "null", 
            "discount": "30", 
            "discountType": "percentage"
          }, 
          {
            "validTill": "2016-12-15", 
            "currency": "AED", 
            "tag": "", 
            "originalPrice": 0, 
            "updatedAt": "2016-08-11 05:57:19", 
            "services": [], 
            "createdAt": "2016-08-10 07:42:51", 
            "title": "Gel Manicure + Classic Pedicure", 
            "state": "active", 
            "offerPrice": 129, 
            "toc": "null", 
            "discount": "30", 
            "discountType": "percentage"
          }, 
          {
            "validTill": "2016-12-15", 
            "currency": "AED", 
            "tag": "", 
            "originalPrice": 0, 
            "updatedAt": "2016-08-10 07:43:58", 
            "services": [], 
            "createdAt": "2016-08-10 07:43:58", 
            "title": "Full body waxing (Excluding Brazilian)", 
            "state": "active", 
            "offerPrice": 139, 
            "toc": "null", 
            "discount": "30", 
            "discountType": "percentage"
          }
        ], 
        "cityID": 1, 
        "costEstimate": 2, 
        "isFavourite": "0", 
        "averageRating": 4.25
      }, 
      {
        "servicesSelected": [], 
        "mediumCoverImageURL": "http://d187hsnmfgmmaz.cloudfront.net/images/6285/medium/a5cab073199d37574f42d30181419a8b.jpg", 
        "smallCoverImageURL": "http://d187hsnmfgmmaz.cloudfront.net/images/6285/small/a5cab073199d37574f42d30181419a8b.jpg", 
        "currency": "AED", 
        "address": "Shop Number 10, Prime Residence 2, International City, Dubai ", 
        "citySlug": "dubai", 
        "slug": "unique-gents-care-international-city", 
        "imageCount": 1, 
        "totalNumberOfVotes": 18, 
        "rateCardCount": 3, 
        "highlightArray": [
          {
            "id": 6, 
            "iconURL": "http://d187hsnmfgmmaz.cloudfront.net/mobile/icons/v2/mens-only.png", 
            "name": "Men", 
            "slug": "mens-only"
          }, 
          {
            "id": 15, 
            "iconURL": "http://d187hsnmfgmmaz.cloudfront.net/mobile/icons/v2/credit-card.png", 
            "name": "Credit Card", 
            "slug": "credit-card"
          }
        ], 
        "name": "Unique Gents Care", 
        "phoneNumberArray": [
          "+971551516703", 
          "+97145531074"
        ], 
        "popularity": 470, 
        "cityName": "Dubai", 
        "offerArray": [], 
        "cityID": 1, 
        "costEstimate": 1, 
        "isFavourite": "0", 
        "averageRating": 3.72
      }, 
      {
        "servicesSelected": [], 
        "mediumCoverImageURL": "http://d187hsnmfgmmaz.cloudfront.net/images/22330/medium/007.jpg", 
        "smallCoverImageURL": "http://d187hsnmfgmmaz.cloudfront.net/images/22330/small/007.jpg", 
        "currency": "AED", 
        "address": "Villa 257-B, Near Iranian Hospital, Al Wasl Road, Jumeirah 1, Dubai", 
        "citySlug": "dubai", 
        "slug": "lolita-ladies-salon-jumeirah-1", 
        "imageCount": 6, 
        "totalNumberOfVotes": 19, 
        "rateCardCount": 9, 
        "highlightArray": [
          {
            "id": 4, 
            "iconURL": "http://d187hsnmfgmmaz.cloudfront.net/mobile/icons/v2/ladies-only.png", 
            "name": "Ladies", 
            "slug": "ladies-only"
          }, 
          {
            "id": 15, 
            "iconURL": "http://d187hsnmfgmmaz.cloudfront.net/mobile/icons/v2/credit-card.png", 
            "name": "Credit Card", 
            "slug": "credit-card"
          }
        ], 
        "name": "Lolita Ladies Salon", 
        "phoneNumberArray": [
          "+97143856558"
        ], 
        "popularity": 383, 
        "cityName": "Dubai", 
        "offerArray": [], 
        "cityID": 1, 
        "costEstimate": 2, 
        "isFavourite": "0", 
        "averageRating": 3.95
      }, 
      {
        "servicesSelected": [], 
        "mediumCoverImageURL": "http://d187hsnmfgmmaz.cloudfront.net/images/30010/medium/2.jpg", 
        "smallCoverImageURL": "http://d187hsnmfgmmaz.cloudfront.net/images/30010/small/2.jpg", 
        "currency": "AED", 
        "address": "Building 14, Zen 2, Discovery Gardens, Dubai", 
        "citySlug": "dubai", 
        "slug": "olive-beautys-hut-discovery-gardens", 
        "imageCount": 6, 
        "totalNumberOfVotes": 24, 
        "rateCardCount": 4, 
        "highlightArray": [
          {
            "id": 4, 
            "iconURL": "http://d187hsnmfgmmaz.cloudfront.net/mobile/icons/v2/ladies-only.png", 
            "name": "Ladies", 
            "slug": "ladies-only"
          }, 
          {
            "id": 15, 
            "iconURL": "http://d187hsnmfgmmaz.cloudfront.net/mobile/icons/v2/credit-card.png", 
            "name": "Credit Card", 
            "slug": "credit-card"
          }
        ], 
        "name": "Olive Beauty's Hut", 
        "phoneNumberArray": [
          "+97144548342", 
          "+97144548343"
        ], 
        "popularity": 379, 
        "cityName": "Dubai", 
        "offerArray": [], 
        "cityID": 1, 
        "costEstimate": 1, 
        "isFavourite": "0", 
        "averageRating": 4.5
      }, 
      {
        "servicesSelected": [], 
        "mediumCoverImageURL": "http://d187hsnmfgmmaz.cloudfront.net/images/42313/medium/img-4186.jpg", 
        "smallCoverImageURL": "http://d187hsnmfgmmaz.cloudfront.net/images/42313/small/img-4186.jpg", 
        "currency": "AED", 
        "address": "Shop 14, Al Nasr Plaza,\r\nOud Metha,\r\nDubai", 
        "citySlug": "dubai", 
        "slug": "cool-aroma-gentlemens-spa-oud-metha", 
        "imageCount": 6, 
        "totalNumberOfVotes": 15, 
        "rateCardCount": 4, 
        "highlightArray": [
          {
            "id": 6, 
            "iconURL": "http://d187hsnmfgmmaz.cloudfront.net/mobile/icons/v2/mens-only.png", 
            "name": "Men", 
            "slug": "mens-only"
          }, 
          {
            "id": 15, 
            "iconURL": "http://d187hsnmfgmmaz.cloudfront.net/mobile/icons/v2/credit-card.png", 
            "name": "Credit Card", 
            "slug": "credit-card"
          }
        ], 
        "name": "Cool Aroma Gentlemens Spa", 
        "phoneNumberArray": [
          "+97145610972"
        ], 
        "popularity": 376, 
        "cityName": "Dubai", 
        "offerArray": [
          {
            "validTill": "2016-11-30", 
            "currency": "AED", 
            "tag": "", 
            "originalPrice": 0, 
            "updatedAt": "2016-09-05 18:00:37", 
            "services": [], 
            "createdAt": "2016-09-05 18:00:37", 
            "title": "Moroccan Bath + Body Massage (60 min)", 
            "state": "active", 
            "offerPrice": 460, 
            "toc": "null", 
            "discount": "30", 
            "discountType": "percentage"
          }
        ], 
        "cityID": 1, 
        "costEstimate": 2, 
        "isFavourite": "0", 
        "averageRating": 4.07
      }, 
      {
        "servicesSelected": [], 
        "mediumCoverImageURL": "http://d187hsnmfgmmaz.cloudfront.net/images/7171/medium/img-4953.jpg", 
        "smallCoverImageURL": "http://d187hsnmfgmmaz.cloudfront.net/images/7171/small/img-4953.jpg", 
        "currency": "AED", 
        "address": "2nd Floor, Abaya Mall, Mirdif, Dubai", 
        "citySlug": "dubai", 
        "slug": "morning-glory-health-club-and-spa-mirdiff", 
        "imageCount": 11, 
        "totalNumberOfVotes": 17, 
        "rateCardCount": 0, 
        "highlightArray": [
          {
            "id": 4, 
            "iconURL": "http://d187hsnmfgmmaz.cloudfront.net/mobile/icons/v2/ladies-only.png", 
            "name": "Ladies", 
            "slug": "ladies-only"
          }, 
          {
            "id": 15, 
            "iconURL": "http://d187hsnmfgmmaz.cloudfront.net/mobile/icons/v2/credit-card.png", 
            "name": "Credit Card", 
            "slug": "credit-card"
          }, 
          {
            "id": 11, 
            "iconURL": "http://d187hsnmfgmmaz.cloudfront.net/mobile/icons/v2/wi-fi.png", 
            "name": "Wi-fi", 
            "slug": "wi-fi"
          }
        ], 
        "name": "Morning Glory Spa", 
        "phoneNumberArray": [
          "+97142881166"
        ], 
        "popularity": 334, 
        "cityName": "Dubai", 
        "offerArray": [], 
        "cityID": 1, 
        "costEstimate": 2, 
        "isFavourite": "0", 
        "averageRating": 3.82
      }, 
      {
        "servicesSelected": [], 
        "mediumCoverImageURL": "http://d187hsnmfgmmaz.cloudfront.net/images/26384/medium/soul1.jpg", 
        "smallCoverImageURL": "http://d187hsnmfgmmaz.cloudfront.net/images/26384/small/soul1.jpg", 
        "currency": "AED", 
        "address": "11-15, Atrium Center, Opposite Four Points By Sheraton Hotel, Near Burjuman Station, Bank Street, Khalid Bin Al Waleed, Dubai", 
        "citySlug": "dubai", 
        "slug": "soul-senses-spa-khalid-bin-waleed", 
        "imageCount": 8, 
        "totalNumberOfVotes": 53, 
        "rateCardCount": 7, 
        "highlightArray": [
          {
            "id": 5, 
            "iconURL": "http://d187hsnmfgmmaz.cloudfront.net/mobile/icons/v2/unisex.png", 
            "name": "Unisex", 
            "slug": "unisex"
          }, 
          {
            "id": 15, 
            "iconURL": "http://d187hsnmfgmmaz.cloudfront.net/mobile/icons/v2/credit-card.png", 
            "name": "Credit Card", 
            "slug": "credit-card"
          }
        ], 
        "name": "Soul Senses Spa", 
        "phoneNumberArray": [
          "+97145610717"
        ], 
        "popularity": 327, 
        "cityName": "Dubai", 
        "offerArray": [
          {
            "validTill": "2016-10-30", 
            "currency": "AED", 
            "tag": "", 
            "originalPrice": 0, 
            "updatedAt": "2016-07-30 09:35:09", 
            "services": [], 
            "createdAt": "2016-07-30 09:35:09", 
            "title": "One Year Membership ( Deep Tissue Massage, Thai Massage, Swedish Massage)", 
            "state": "active", 
            "offerPrice": 1200, 
            "toc": "null", 
            "discount": "30", 
            "discountType": "percentage"
          }
        ], 
        "cityID": 1, 
        "costEstimate": 1, 
        "isFavourite": "1", 
        "averageRating": 4.53
      }, 
      {
        "servicesSelected": [], 
        "mediumCoverImageURL": "http://d187hsnmfgmmaz.cloudfront.net/images/5138/medium/1313.jpg", 
        "smallCoverImageURL": "http://d187hsnmfgmmaz.cloudfront.net/images/5138/small/1313.jpg", 
        "currency": "AED", 
        "address": "Ground Floor, Building E1, Al Quds Street, Dubai Airport Free Zone, Al Qusais, Dubai", 
        "citySlug": "dubai", 
        "slug": "suba-spa-al-qusais", 
        "imageCount": 1, 
        "totalNumberOfVotes": 19, 
        "rateCardCount": 7, 
        "highlightArray": [
          {
            "id": 5, 
            "iconURL": "http://d187hsnmfgmmaz.cloudfront.net/mobile/icons/v2/unisex.png", 
            "name": "Unisex", 
            "slug": "unisex"
          }, 
          {
            "id": 11, 
            "iconURL": "http://d187hsnmfgmmaz.cloudfront.net/mobile/icons/v2/wi-fi.png", 
            "name": "Wi-fi", 
            "slug": "wi-fi"
          }, 
          {
            "id": 15, 
            "iconURL": "http://d187hsnmfgmmaz.cloudfront.net/mobile/icons/v2/credit-card.png", 
            "name": "Credit Card", 
            "slug": "credit-card"
          }
        ], 
        "name": "Suba Spa", 
        "phoneNumberArray": [
          "+97142991888"
        ], 
        "popularity": 326, 
        "cityName": "Dubai", 
        "offerArray": [], 
        "cityID": 1, 
        "costEstimate": 2, 
        "isFavourite": "0", 
        "averageRating": 3.97
      }, 
      {
        "servicesSelected": [], 
        "mediumCoverImageURL": "http://d187hsnmfgmmaz.cloudfront.net/images/2829/medium/image.jpg", 
        "smallCoverImageURL": "http://d187hsnmfgmmaz.cloudfront.net/images/2829/small/image.jpg", 
        "currency": "AED", 
        "address": "Shop 1, Ground Floor, Al Salam Tower, Behind City Max Hotel, Al Barsha 1, Dubai", 
        "citySlug": "dubai", 
        "slug": "albait-almalaki-relaxation-centre-barsha-1", 
        "imageCount": 1, 
        "totalNumberOfVotes": 14, 
        "rateCardCount": 1, 
        "highlightArray": [
          {
            "id": 5, 
            "iconURL": "http://d187hsnmfgmmaz.cloudfront.net/mobile/icons/v2/unisex.png", 
            "name": "Unisex", 
            "slug": "unisex"
          }
        ], 
        "name": "Albait Almalaki Relaxation Centre", 
        "phoneNumberArray": [
          "+971501462088"
        ], 
        "popularity": 284, 
        "cityName": "Dubai", 
        "offerArray": [], 
        "cityID": 1, 
        "costEstimate": 1, 
        "isFavourite": "0", 
        "averageRating": 4.07
      }, 
      {
        "servicesSelected": [], 
        "mediumCoverImageURL": "http://d187hsnmfgmmaz.cloudfront.net/images/45884/medium/carnival.jpeg", 
        "smallCoverImageURL": "http://d187hsnmfgmmaz.cloudfront.net/images/45884/small/carnival.jpeg", 
        "currency": "AED", 
        "address": "Opposite New Union Cooperative Society, Al Wasl Road, Umm Suqeim, Dubai ", 
        "citySlug": "dubai", 
        "slug": "carnival-health-spa-2-umm-suqeim", 
        "imageCount": 9, 
        "totalNumberOfVotes": 18, 
        "rateCardCount": 3, 
        "highlightArray": [
          {
            "id": 11, 
            "iconURL": "http://d187hsnmfgmmaz.cloudfront.net/mobile/icons/v2/wi-fi.png", 
            "name": "Wi-fi", 
            "slug": "wi-fi"
          }, 
          {
            "id": 15, 
            "iconURL": "http://d187hsnmfgmmaz.cloudfront.net/mobile/icons/v2/credit-card.png", 
            "name": "Credit Card", 
            "slug": "credit-card"
          }, 
          {
            "id": 4, 
            "iconURL": "http://d187hsnmfgmmaz.cloudfront.net/mobile/icons/v2/ladies-only.png", 
            "name": "Ladies", 
            "slug": "ladies-only"
          }, 
          {
            "id": 6, 
            "iconURL": "http://d187hsnmfgmmaz.cloudfront.net/mobile/icons/v2/mens-only.png", 
            "name": "Men", 
            "slug": "mens-only"
          }
        ], 
        "name": "Carnival Health Spa 2", 
        "phoneNumberArray": [
          "+97145508326"
        ], 
        "popularity": 248, 
        "cityName": "Dubai", 
        "offerArray": [], 
        "cityID": 1, 
        "costEstimate": 2, 
        "isFavourite": "0", 
        "averageRating": 4.17
      }, 
      {
        "servicesSelected": [], 
        "mediumCoverImageURL": "http://d187hsnmfgmmaz.cloudfront.net/images/2305/medium/dce1c3d382501d3fa2a5c0f8377c88d5.jpg", 
        "smallCoverImageURL": "http://d187hsnmfgmmaz.cloudfront.net/images/2305/small/dce1c3d382501d3fa2a5c0f8377c88d5.jpg", 
        "currency": "AED", 
        "address": "Behind Move N Pick Hotel, Near Tea Junction, Oud Metha, Dubai", 
        "citySlug": "dubai", 
        "slug": "rachels-ladies-saloon-oud-metha", 
        "imageCount": 1, 
        "totalNumberOfVotes": 31, 
        "rateCardCount": 10, 
        "highlightArray": [
          {
            "id": 4, 
            "iconURL": "http://d187hsnmfgmmaz.cloudfront.net/mobile/icons/v2/ladies-only.png", 
            "name": "Ladies", 
            "slug": "ladies-only"
          }
        ], 
        "name": "Rachels Ladies Saloon", 
        "phoneNumberArray": [
          "+971501480288", 
          "+97143572108"
        ], 
        "popularity": 189, 
        "cityName": "Dubai", 
        "offerArray": [], 
        "cityID": 1, 
        "costEstimate": 1, 
        "isFavourite": "0", 
        "averageRating": 3.69
      }, 
      {
        "servicesSelected": [], 
        "mediumCoverImageURL": "http://d187hsnmfgmmaz.cloudfront.net/images/2802/medium/image.jpg", 
        "smallCoverImageURL": "http://d187hsnmfgmmaz.cloudfront.net/images/2802/small/image.jpg", 
        "currency": "AED", 
        "address": "Khaled Building, Opposite Al Barsha Post Office, Barsha 1, Dubai", 
        "citySlug": "dubai", 
        "slug": "gents-mania-saloon-spa-barsha-1", 
        "imageCount": 1, 
        "totalNumberOfVotes": 13, 
        "rateCardCount": 2, 
        "highlightArray": [
          {
            "id": 6, 
            "iconURL": "http://d187hsnmfgmmaz.cloudfront.net/mobile/icons/v2/mens-only.png", 
            "name": "Men", 
            "slug": "mens-only"
          }, 
          {
            "id": 15, 
            "iconURL": "http://d187hsnmfgmmaz.cloudfront.net/mobile/icons/v2/credit-card.png", 
            "name": "Credit Card", 
            "slug": "credit-card"
          }
        ], 
        "name": "Gents Mania Saloon & Spa", 
        "phoneNumberArray": [
          "+97143235543"
        ], 
        "popularity": 176, 
        "cityName": "Dubai", 
        "offerArray": [], 
        "cityID": 1, 
        "costEstimate": 1, 
        "isFavourite": "0", 
        "averageRating": 4.08
      }, 
      {
        "servicesSelected": [], 
        "mediumCoverImageURL": "http://d187hsnmfgmmaz.cloudfront.net/images/40737/medium/a.jpg", 
        "smallCoverImageURL": "http://d187hsnmfgmmaz.cloudfront.net/images/40737/small/a.jpg", 
        "currency": "AED", 
        "address": "Sheikh Hassar Al Maktoum Building, Near Sunrise Supermarket, Oud Metha, Dubai", 
        "citySlug": "dubai", 
        "slug": "nail-concepts-ladies-beauty-center-oud-metha", 
        "imageCount": 11, 
        "totalNumberOfVotes": 32, 
        "rateCardCount": 1, 
        "highlightArray": [
          {
            "id": 4, 
            "iconURL": "http://d187hsnmfgmmaz.cloudfront.net/mobile/icons/v2/ladies-only.png", 
            "name": "Ladies", 
            "slug": "ladies-only"
          }, 
          {
            "id": 15, 
            "iconURL": "http://d187hsnmfgmmaz.cloudfront.net/mobile/icons/v2/credit-card.png", 
            "name": "Credit Card", 
            "slug": "credit-card"
          }
        ], 
        "name": "Nail Concepts Ladies Beauty Center", 
        "phoneNumberArray": [
          "+97145610877"
        ], 
        "popularity": 169, 
        "cityName": "Dubai", 
        "offerArray": [], 
        "cityID": 1, 
        "costEstimate": 1, 
        "isFavourite": "0", 
        "averageRating": 4.97
      }, 
      {
        "servicesSelected": [], 
        "mediumCoverImageURL": "http://d187hsnmfgmmaz.cloudfront.net/images/43011/medium/5.jpg", 
        "smallCoverImageURL": "http://d187hsnmfgmmaz.cloudfront.net/images/43011/small/5.jpg", 
        "currency": "AED", 
        "address": "1st Floor, Sunset Mall, Jumeirah Beach Road, Jumeirah 3, Dubai", 
        "citySlug": "dubai", 
        "slug": "re-salonsspas-jumeirah-3", 
        "imageCount": 5, 
        "totalNumberOfVotes": 19, 
        "rateCardCount": 15, 
        "highlightArray": [
          {
            "id": 15, 
            "iconURL": "http://d187hsnmfgmmaz.cloudfront.net/mobile/icons/v2/credit-card.png", 
            "name": "Credit Card", 
            "slug": "credit-card"
          }, 
          {
            "id": 4, 
            "iconURL": "http://d187hsnmfgmmaz.cloudfront.net/mobile/icons/v2/ladies-only.png", 
            "name": "Ladies", 
            "slug": "ladies-only"
          }
        ], 
        "name": "RE Salons.Spas", 
        "phoneNumberArray": [
          "+97142753028"
        ], 
        "popularity": 163, 
        "cityName": "Dubai", 
        "offerArray": [
          {
            "validTill": "2017-02-08", 
            "currency": "AED", 
            "tag": "", 
            "originalPrice": 0, 
            "updatedAt": "2016-09-09 10:59:46", 
            "services": [], 
            "createdAt": "2016-09-03 12:44:10", 
            "title": "RE-Wheelz Spa @ Home (home/hotel/office)", 
            "state": "active", 
            "offerPrice": 0, 
            "toc": "null", 
            "discount": "0", 
            "discountType": "non-price-based-deal"
          }, 
          {
            "validTill": "2017-02-08", 
            "currency": "AED", 
            "tag": "", 
            "originalPrice": 0, 
            "updatedAt": "2016-09-03 12:45:10", 
            "services": [], 
            "createdAt": "2016-09-03 12:45:10", 
            "title": "RE-New Your Look : Intensive Hot Oil Back Massage (30 Mins), Standard Manicure & Pedicure", 
            "state": "active", 
            "offerPrice": 270, 
            "toc": "null", 
            "discount": "30", 
            "discountType": "percentage"
          }, 
          {
            "validTill": "2017-02-28", 
            "currency": "AED", 
            "tag": "", 
            "originalPrice": 0, 
            "updatedAt": "2016-09-03 12:45:43", 
            "services": [], 
            "createdAt": "2016-09-03 12:45:43", 
            "title": "RE-Offer On Wheelz : Nourishing Treatment, Regular Haircut, Wash & Blow Dry, Standard Manicure & Pedicure", 
            "state": "active", 
            "offerPrice": 450, 
            "toc": "null", 
            "discount": "30", 
            "discountType": "percentage"
          }, 
          {
            "validTill": "2017-01-31", 
            "currency": "AED", 
            "tag": "", 
            "originalPrice": 0, 
            "updatedAt": "2016-09-09 10:47:08", 
            "services": [], 
            "createdAt": "2016-09-09 10:45:18", 
            "title": "Unlimited All You Can Spa (30 Days)", 
            "state": "active", 
            "offerPrice": 799, 
            "toc": "null", 
            "discount": "30", 
            "discountType": "percentage"
          }
        ], 
        "cityID": 1, 
        "costEstimate": 2, 
        "isFavourite": "0", 
        "averageRating": 4.16
      }, 
      {
        "servicesSelected": [], 
        "mediumCoverImageURL": "http://d187hsnmfgmmaz.cloudfront.net/images/19311/medium/5.jpg", 
        "smallCoverImageURL": "http://d187hsnmfgmmaz.cloudfront.net/images/19311/small/5.jpg", 
        "currency": "AED", 
        "address": "Office B2-22, Gate Village 8,\r\nDIFC, Dubai", 
        "citySlug": "dubai", 
        "slug": "momentous-beauty-lounge-difc", 
        "imageCount": 7, 
        "totalNumberOfVotes": 21, 
        "rateCardCount": 10, 
        "highlightArray": [
          {
            "id": 4, 
            "iconURL": "http://d187hsnmfgmmaz.cloudfront.net/mobile/icons/v2/ladies-only.png", 
            "name": "Ladies", 
            "slug": "ladies-only"
          }, 
          {
            "id": 11, 
            "iconURL": "http://d187hsnmfgmmaz.cloudfront.net/mobile/icons/v2/wi-fi.png", 
            "name": "Wi-fi", 
            "slug": "wi-fi"
          }, 
          {
            "id": 15, 
            "iconURL": "http://d187hsnmfgmmaz.cloudfront.net/mobile/icons/v2/credit-card.png", 
            "name": "Credit Card", 
            "slug": "credit-card"
          }
        ], 
        "name": "Momentous Beauty Lounge", 
        "phoneNumberArray": [
          "+97143544669"
        ], 
        "popularity": 162, 
        "cityName": "Dubai", 
        "offerArray": [], 
        "cityID": 1, 
        "costEstimate": 2, 
        "isFavourite": "0", 
        "averageRating": 3.88
      }, 
      {
        "servicesSelected": [], 
        "mediumCoverImageURL": "http://d187hsnmfgmmaz.cloudfront.net/images/29839/medium/2.jpg", 
        "smallCoverImageURL": "http://d187hsnmfgmmaz.cloudfront.net/images/29839/small/2.jpg", 
        "currency": "AED", 
        "address": "Shop 6, Al Habbai Building, Oud Metha, Dubai", 
        "citySlug": "dubai", 
        "slug": "mint-beauty-lounge-oud-metha", 
        "imageCount": 6, 
        "totalNumberOfVotes": 3, 
        "rateCardCount": 5, 
        "highlightArray": [
          {
            "id": 15, 
            "iconURL": "http://d187hsnmfgmmaz.cloudfront.net/mobile/icons/v2/credit-card.png", 
            "name": "Credit Card", 
            "slug": "credit-card"
          }, 
          {
            "id": 4, 
            "iconURL": "http://d187hsnmfgmmaz.cloudfront.net/mobile/icons/v2/ladies-only.png", 
            "name": "Ladies", 
            "slug": "ladies-only"
          }
        ], 
        "name": "Mint Beauty Lounge", 
        "phoneNumberArray": [
          "+97143573557"
        ], 
        "popularity": 156, 
        "cityName": "Dubai", 
        "offerArray": [], 
        "cityID": 1, 
        "costEstimate": 0, 
        "isFavourite": "0", 
        "averageRating": 3.67
      }, 
      {
        "servicesSelected": [], 
        "mediumCoverImageURL": "http://d187hsnmfgmmaz.cloudfront.net/images/32677/medium/1.jpg", 
        "smallCoverImageURL": "http://d187hsnmfgmmaz.cloudfront.net/images/32677/small/1.jpg", 
        "currency": "AED", 
        "address": "Next to West Zone Supermarket, Near Iranian Hospital, Al Hudaiba Road, Al Bada'a, Satwa, Dubai", 
        "citySlug": "dubai", 
        "slug": "mayumy-ladies-salon-satwa", 
        "imageCount": 6, 
        "totalNumberOfVotes": 42, 
        "rateCardCount": 5, 
        "highlightArray": [
          {
            "id": 4, 
            "iconURL": "http://d187hsnmfgmmaz.cloudfront.net/mobile/icons/v2/ladies-only.png", 
            "name": "Ladies", 
            "slug": "ladies-only"
          }
        ], 
        "name": "Mayumy Ladies Salon", 
        "phoneNumberArray": [
          "+97142753021"
        ], 
        "popularity": 156, 
        "cityName": "Dubai", 
        "offerArray": [], 
        "cityID": 1, 
        "costEstimate": 1, 
        "isFavourite": "0", 
        "averageRating": 4.36
      }, 
      {
        "servicesSelected": [], 
        "mediumCoverImageURL": "http://d187hsnmfgmmaz.cloudfront.net/images/40360/medium/img-6845.jpg", 
        "smallCoverImageURL": "http://d187hsnmfgmmaz.cloudfront.net/images/40360/small/img-6845.jpg", 
        "currency": "AED", 
        "address": "Grandeur Hotel, Barsha 1, Dubai", 
        "citySlug": "dubai", 
        "slug": "soul-senses-spa-barsha-1", 
        "imageCount": 8, 
        "totalNumberOfVotes": 39, 
        "rateCardCount": 5, 
        "highlightArray": [
          {
            "id": 15, 
            "iconURL": "http://d187hsnmfgmmaz.cloudfront.net/mobile/icons/v2/credit-card.png", 
            "name": "Credit Card", 
            "slug": "credit-card"
          }, 
          {
            "id": 5, 
            "iconURL": "http://d187hsnmfgmmaz.cloudfront.net/mobile/icons/v2/unisex.png", 
            "name": "Unisex", 
            "slug": "unisex"
          }
        ], 
        "name": "Soul Senses Spa", 
        "phoneNumberArray": [
          "+97145610978"
        ], 
        "popularity": 147, 
        "cityName": "Dubai", 
        "offerArray": [
          {
            "validTill": "2016-10-31", 
            "currency": "AED", 
            "tag": "", 
            "originalPrice": 0, 
            "updatedAt": "2016-08-29 08:06:06", 
            "services": [], 
            "createdAt": "2016-07-30 09:37:12", 
            "title": "Treatment of the Month : Aloe Vera Treatment", 
            "state": "active", 
            "offerPrice": 0, 
            "toc": "null", 
            "discount": "0", 
            "discountType": "non-price-based-deal"
          }, 
          {
            "validTill": "2016-10-31", 
            "currency": "AED", 
            "tag": "", 
            "originalPrice": 0, 
            "updatedAt": "2016-07-30 09:41:21", 
            "services": [], 
            "createdAt": "2016-07-30 09:37:51", 
            "title": "Best Thai Massage in Dubai", 
            "state": "active", 
            "offerPrice": 99, 
            "toc": "null", 
            "discount": "30", 
            "discountType": "percentage"
          }, 
          {
            "validTill": "2016-10-31", 
            "currency": "AED", 
            "tag": "", 
            "originalPrice": 0, 
            "updatedAt": "2016-07-30 09:38:49", 
            "services": [], 
            "createdAt": "2016-07-30 09:38:49", 
            "title": "One Year Membership ( Deep Tissue Massage, Thai Massage, Swedish Massage)", 
            "state": "active", 
            "offerPrice": 1200, 
            "toc": "null", 
            "discount": "30", 
            "discountType": "percentage"
          }
        ], 
        "cityID": 1, 
        "costEstimate": 1, 
        "isFavourite": "0", 
        "averageRating": 4.5
      }, 
      {
        "servicesSelected": [], 
        "mediumCoverImageURL": "http://d187hsnmfgmmaz.cloudfront.net/images/24254/medium/1410.jpg", 
        "smallCoverImageURL": "http://d187hsnmfgmmaz.cloudfront.net/images/24254/small/1410.jpg", 
        "currency": "AED", 
        "address": "Al Barsha Business Centre Building, Opposite Centro Rotana Hotel, Barsha 1, Dubai", 
        "citySlug": "dubai", 
        "slug": "the-stylists-salon-barsha-1", 
        "imageCount": 7, 
        "totalNumberOfVotes": 24, 
        "rateCardCount": 2, 
        "highlightArray": [
          {
            "id": 15, 
            "iconURL": "http://d187hsnmfgmmaz.cloudfront.net/mobile/icons/v2/credit-card.png", 
            "name": "Credit Card", 
            "slug": "credit-card"
          }, 
          {
            "id": 4, 
            "iconURL": "http://d187hsnmfgmmaz.cloudfront.net/mobile/icons/v2/ladies-only.png", 
            "name": "Ladies", 
            "slug": "ladies-only"
          }
        ], 
        "name": "The Stylists Salon", 
        "phoneNumberArray": [
          "+97142753005"
        ], 
        "popularity": 134, 
        "cityName": "Dubai", 
        "offerArray": [], 
        "cityID": 1, 
        "costEstimate": 1, 
        "isFavourite": "1", 
        "averageRating": 4.5
      }
    ], 
    "businessZoneIDs": [
      0, 
      4, 
      4, 
      4, 
      4, 
      4, 
      4, 
      4, 
      4, 
      4, 
      4, 
      5, 
      5, 
      5, 
      5, 
      5, 
      5, 
      5, 
      5, 
      5, 
      3, 
      3, 
      3, 
      3, 
      3, 
      3, 
      3, 
      3, 
      3, 
      3, 
      3, 
      3, 
      3, 
      3, 
      3, 
      6, 
      6, 
      6, 
      6, 
      6, 
      6, 
      7, 
      7, 
      7, 
      7, 
      7, 
      8, 
      8, 
      8, 
      8, 
      8, 
      8, 
      8, 
      8, 
      9, 
      9, 
      9, 
      9, 
      9, 
      9, 
      9, 
      9, 
      9, 
      9, 
      9, 
      1, 
      1, 
      1, 
      1, 
      1, 
      1, 
      1, 
      1, 
      1, 
      1, 
      1, 
      1, 
      1, 
      1, 
      2, 
      2, 
      2, 
      2, 
      2, 
      2, 
      2
    ], 
    "batchDetails": {
      "batchNumber": "1", 
      "totalNumberOfBusiness": 2445, 
      "sizeOfBatch": 20
    }
  }, 
  "success": "1"
}